…
My data has more than 8 variables, I selected 8 variables from the
tibble in the following code chunk and I can say the data is tidy.

``` r
vancouver_trees_tidy <- vancouver_trees %>%
  reframe(tree_id, civic_number, std_street, genus_name, species_name, common_name, assigned, root_barrier)

print(vancouver_trees_tidy)
```

    ## # A tibble: 146,611 × 8
    ##    tree_id civic_number std_street  genus_name species_name common_name assigned
    ##      <dbl>        <dbl> <chr>       <chr>      <chr>        <chr>       <chr>   
    ##  1  149556          494 W 58TH AV   ULMUS      AMERICANA    BRANDON ELM N       
    ##  2  149563          450 W 58TH AV   ZELKOVA    SERRATA      JAPANESE Z… N       
    ##  3  149579         4994 WINDSOR ST  STYRAX     JAPONICA     JAPANESE S… N       
    ##  4  149590          858 E 39TH AV   FRAXINUS   AMERICANA    AUTUMN APP… Y       
    ##  5  149604         5032 WINDSOR ST  ACER       CAMPESTRE    HEDGE MAPLE N       
    ##  6  149616          585 W 61ST AV   PYRUS      CALLERYANA   CHANTICLEE… N       
    ##  7  149617         4909 SHERBROOKE… ACER       PLATANOIDES  COLUMNAR N… N       
    ##  8  149618         4925 SHERBROOKE… ACER       PLATANOIDES  COLUMNAR N… N       
    ##  9  149619         4969 SHERBROOKE… ACER       PLATANOIDES  COLUMNAR N… N       
    ## 10  149625          720 E 39TH AV   FRAXINUS   AMERICANA    AUTUMN APP… N       
    ## # ℹ 146,601 more rows
    ## # ℹ 1 more variable: root_barrier <chr>
…
``` r
vancouver_trees_untidy <- vancouver_trees_tidy %>% 
  pivot_longer(cols = -c(tree_id, civic_number, std_street, assigned, root_barrier), names_to = "species_info", values_to = "value")

# Print the untidy data
print(vancouver_trees_untidy)
```

    ## # A tibble: 439,833 × 7
    ##    tree_id civic_number std_street assigned root_barrier species_info value     
    ##      <dbl>        <dbl> <chr>      <chr>    <chr>        <chr>        <chr>     
    ##  1  149556          494 W 58TH AV  N        N            genus_name   ULMUS     
    ##  2  149556          494 W 58TH AV  N        N            species_name AMERICANA 
    ##  3  149556          494 W 58TH AV  N        N            common_name  BRANDON E…
    ##  4  149563          450 W 58TH AV  N        N            genus_name   ZELKOVA   
    ##  5  149563          450 W 58TH AV  N        N            species_name SERRATA   
    ##  6  149563          450 W 58TH AV  N        N            common_name  JAPANESE …
    ##  7  149579         4994 WINDSOR ST N        N            genus_name   STYRAX    
    ##  8  149579         4994 WINDSOR ST N        N            species_name JAPONICA  
    ##  9  149579         4994 WINDSOR ST N        N            common_name  JAPANESE …
    ## 10  149590          858 E 39TH AV  Y        N            genus_name   FRAXINUS  
    ## # ℹ 439,823 more rows

``` r
vancouver_trees_tidy <- vancouver_trees_untidy %>% 
  pivot_wider(names_from = species_info, values_from = value)

# Print the tidy data
print(vancouver_trees_tidy)
```

    ## # A tibble: 146,611 × 8
    ##    tree_id civic_number std_street assigned root_barrier genus_name species_name
    ##      <dbl>        <dbl> <chr>      <chr>    <chr>        <chr>      <chr>       
    ##  1  149556          494 W 58TH AV  N        N            ULMUS      AMERICANA   
    ##  2  149563          450 W 58TH AV  N        N            ZELKOVA    SERRATA     
    ##  3  149579         4994 WINDSOR ST N        N            STYRAX     JAPONICA    
    ##  4  149590          858 E 39TH AV  Y        N            FRAXINUS   AMERICANA   
    ##  5  149604         5032 WINDSOR ST N        N            ACER       CAMPESTRE   
    ##  6  149616          585 W 61ST AV  N        N            PYRUS      CALLERYANA  
    ##  7  149617         4909 SHERBROOK… N        N            ACER       PLATANOIDES 
    ##  8  149618         4925 SHERBROOK… N        N            ACER       PLATANOIDES 
    ##  9  149619         4969 SHERBROOK… N        N            ACER       PLATANOIDES 
    ## 10  149625          720 E 39TH AV  N        N            FRAXINUS   AMERICANA   
    ## # ℹ 146,601 more rows
    ## # ℹ 1 more variable: common_name <chr>
…
